…
``` r
gap_gs_drop <- droplevels(gap_gs)
nlevels(gap_gs_drop$country)
```

    ## [1] 2

``` r
gap_gs %>% 
  mutate(fct_country = fct_drop(country))
```

    ## # A tibble: 24 x 7
    ##    country continent  year lifeExp      pop gdpPercap fct_country
    ##    <fct>   <fct>     <int>   <dbl>    <int>     <dbl> <fct>      
    ##  1 Germany Europe     1952    67.5 69145952     7144. Germany    
    ##  2 Germany Europe     1957    69.1 71019069    10188. Germany    
    ##  3 Germany Europe     1962    70.3 73739117    12902. Germany    
    ##  4 Germany Europe     1967    70.8 76368453    14746. Germany    
    ##  5 Germany Europe     1972    71.0 78717088    18016. Germany    
    ##  6 Germany Europe     1977    72.5 78160773    20513. Germany    
    ##  7 Germany Europe     1982    73.8 78335266    22032. Germany    
    ##  8 Germany Europe     1987    74.8 77718298    24639. Germany    
    ##  9 Germany Europe     1992    76.1 80597764    26505. Germany    
    ## 10 Germany Europe     1997    77.3 82011073    27789. Germany    
    ## # ... with 14 more rows
…
