…
`mutate()`
----------

Let's get:

-   GDP by multiplying GPD per capita with population, and
-   GDP in billions, named (`gdpBill`), rounded to two decimals.

``` r
gapminder %>% 
  mutate(gdp = gdpPercap * pop,
         gdpBill =round(gdp/10^9, 2))
```

    ## # A tibble: 1,704 x 8
    ##    country     continent  year lifeExp      pop gdpPercap      gdp gdpBill
    ##    <fct>       <fct>     <int>   <dbl>    <int>     <dbl>    <dbl>   <dbl>
    ##  1 Afghanistan Asia       1952    28.8  8425333      779.  6.57e 9    6.57
    ##  2 Afghanistan Asia       1957    30.3  9240934      821.  7.59e 9    7.59
    ##  3 Afghanistan Asia       1962    32.0 10267083      853.  8.76e 9    8.76
    ##  4 Afghanistan Asia       1967    34.0 11537966      836.  9.65e 9    9.65
    ##  5 Afghanistan Asia       1972    36.1 13079460      740.  9.68e 9    9.68
    ##  6 Afghanistan Asia       1977    38.4 14880372      786.  1.17e10   11.7 
    ##  7 Afghanistan Asia       1982    39.9 12881816      978.  1.26e10   12.6 
    ##  8 Afghanistan Asia       1987    40.8 13867957      852.  1.18e10   11.8 
    ##  9 Afghanistan Asia       1992    41.7 16317921      649.  1.06e10   10.6 
    ## 10 Afghanistan Asia       1997    41.8 22227415      635.  1.41e10   14.1 
    ## # ... with 1,694 more rows
…
